// Jest Snapshot v1, https://goo.gl/fbAQLP

exports[`packages_list_row renders 1`] = `
<div
  class="gl-display-flex gl-flex-direction-column gl-border-b-solid gl-border-t-solid gl-border-t-1 gl-border-b-1 gl-border-t-transparent gl-border-b-gray-100"
  data-testid="package-row"
>
  <div
    class="gl-display-flex gl-align-items-center gl-py-3"
  >
    <div
      class="gl-w-7 gl-display-flex gl-justify-content-start gl-pl-2"
    >
      <gl-form-checkbox-stub
        class="gl-m-0"
        id="2"
      />
    </div>
     
    <div
      class="gl-display-flex gl-xs-flex-direction-column gl-justify-content-space-between gl-align-items-stretch gl-flex-grow-1"
    >
      <div
        class="gl-display-flex gl-flex-direction-column gl-xs-mb-3 gl-min-w-0 gl-flex-grow-1"
      >
        <div
          class="gl-display-flex gl-align-items-center gl-text-body gl-font-weight-bold gl-min-h-6 gl-min-w-0"
        >
          <div
            class="gl-display-flex gl-align-items-center gl-mr-3 gl-min-w-0"
          >
            <router-link-stub
              ariacurrentvalue="page"
              class="gl-text-body gl-min-w-0"
              data-qa-selector="package_link"
              data-testid="details-link"
              event="click"
              tag="a"
              to="[object Object]"
            >
              <gl-truncate-stub
                position="end"
                text="@gitlab-org/package-15"
              />
            </router-link-stub>
             
            <!---->
          </div>
           
          <!---->
        </div>
         
        <div
          class="gl-display-flex gl-align-items-center gl-text-gray-500 gl-min-h-6 gl-min-w-0 gl-flex-grow-1"
        >
          <div
            class="gl-display-flex gl-align-items-center"
            data-testid="left-secondary-infos"
          >
            <gl-truncate-stub
              class="gl-max-w-15 gl-md-max-w-26"
              position="end"
              text="1.0.0"
              withtooltip="true"
            />
             
            <!---->
             
            <package-icon-and-name-stub>
              
        npm
      
            </package-icon-and-name-stub>
             
            <!---->
          </div>
        </div>
      </div>
       
      <div
        class="gl-display-flex gl-flex-direction-column gl-sm-align-items-flex-end gl-justify-content-space-between gl-text-gray-500 gl-flex-shrink-0"
      >
        <div
          class="gl-display-flex gl-align-items-center gl-sm-text-body gl-sm-font-weight-bold gl-min-h-6"
        >
          <publish-method-stub />
        </div>
         
        <div
          class="gl-display-flex gl-align-items-center gl-min-h-6"
        >
          <span
            data-testid="created-date"
          >
            Created 
            <timeago-tooltip-stub
              cssclass=""
              datetimeformat="DATE_WITH_TIME_FORMAT"
              time="2020-08-17T14:23:32Z"
              tooltipplacement="top"
            />
          </span>
        </div>
      </div>
    </div>
     
    <div
      class="gl-w-9 gl-display-flex gl-justify-content-end gl-pr-1"
    >
      <gl-dropdown-stub
        category="tertiary"
        clearalltext="Clear all"
        clearalltextclass="gl-px-5"
        data-testid="delete-dropdown"
        headertext=""
        hideheaderborder="true"
        highlighteditemstitle="Selected"
        highlighteditemstitleclass="gl-px-5"
        icon="ellipsis_v"
        no-caret=""
        size="medium"
        text="More actions"
        textsronly="true"
        variant="default"
      >
        <gl-dropdown-item-stub
          avatarurl=""
          data-testid="action-delete"
          iconcolor=""
          iconname=""
          iconrightarialabel=""
          iconrightname=""
          secondarytext=""
          variant="danger"
        >
          Delete package
        </gl-dropdown-item-stub>
      </gl-dropdown-stub>
    </div>
  </div>
   
  <!---->
</div>
`;
